Line 39: Class VTOcx.fraVISUAL of control fraVISUAL1 was not a loaded control class.
Line 53: Class VTOcx.txtVISUAL of control txtData was not a loaded control class.
Line 125: Class VTOcx.fraFUTURO of control fraFUTURO3 was not a loaded control class.
Line 139: Class VTOcx.txtVISUAL of control txtVence was not a loaded control class.
Line 165: Class VTOcx.txtVISUAL of control txtAlqt was not a loaded control class.
Line 178: Class VTOcx.cmdVISUAL of control cmdRemover was not a loaded control class.
Line 191: Class VTOcx.txtVISUAL of control txtISS was not a loaded control class.
Line 208: Class VTOcx.txtVISUAL of control txtBaseCalc was not a loaded control class.
Line 225: Class VTOcx.txtVISUAL of control txtTotalNota was not a loaded control class.
Line 242: Class VTOcx.txtVISUAL of control txtIRRF was not a loaded control class.
Line 257: Class VTOcx.txtVISUAL of control txtValorMaterial was not a loaded control class.
Line 272: Class VTOcx.txtVISUAL of control txtPeriodo was not a loaded control class.
Line 287: Class VTOcx.cmdVISUAL of control cmdInclui was not a loaded control class.
Line 300: Class VTOcx.txtVISUAL of control txtValorTotal was not a loaded control class.
Line 316: Class VTOcx.txtVISUAL of control txtValorUnitario was not a loaded control class.
Line 330: Class VTOcx.txtVISUAL of control txtQnt was not a loaded control class.
Line 343: Class VTOcx.grdVISUAL of control grdNota was not a loaded control class.
Line 378: Class VTOcx.fraFUTURO of control fraFUTURO2 was not a loaded control class.
Line 392: Class VTOcx.grdVISUAL of control grdDest was not a loaded control class.
Line 407: Class VTOcx.fraVISUAL of control fra was not a loaded control class.
Line 422: Class VTOcx.cboVISUAL of control cboUFDest was not a loaded control class.
Line 435: Class VTOcx.cboVISUAL of control cboAtiviEcon was not a loaded control class.
Line 449: Class VTOcx.txtVISUAL of control txtNomeDest was not a loaded control class.
Line 462: Class VTOcx.cmdVISUAL of control cmBuscaDest was not a loaded control class.
Line 475: Class VTOcx.txtVISUAL of control txtImCpfCnpjDest was not a loaded control class.
Line 490: Class VTOcx.txtVISUAL of control txtCidadeDest was not a loaded control class.
Line 503: Class VTOcx.txtVISUAL of control txtEnderecoDest was not a loaded control class.
Line 516: Class VTOcx.txtVISUAL of control txtBairroDest was not a loaded control class.
Line 529: Class VTOcx.txtVISUAL of control txtCepDest was not a loaded control class.
Line 557: Class VTOcx.fraFUTURO of control fraFUTURO1 was not a loaded control class.
Line 571: Class VTOcx.fraVISUAL of control fra was not a loaded control class.
Line 586: Class VTOcx.cboVISUAL of control cboUFEmi was not a loaded control class.
Line 600: Class VTOcx.txtVISUAL of control txtBairro was not a loaded control class.
Line 613: Class VTOcx.txtVISUAL of control txtEndereco was not a loaded control class.
Line 626: Class VTOcx.txtVISUAL of control TxtCepRem was not a loaded control class.
Line 641: Class VTOcx.txtVISUAL of control txtCidade was not a loaded control class.
Line 654: Class VTOcx.txtVISUAL of control txtImCpfCnpj was not a loaded control class.
Line 669: Class VTOcx.cmdVISUAL of control cmdBuscarContr was not a loaded control class.
Line 682: Class VTOcx.txtVISUAL of control txtNomeContrib was not a loaded control class.
Line 696: Class VTOcx.grdVISUAL of control grdEmit was not a loaded control class.
Line 723: Class VTOcx.cmdVISUAL of control cmdLimpar was not a loaded control class.
Line 736: Class VTOcx.cmdVISUAL of control cmdSalvar was not a loaded control class.
Line 749: Class VTOcx.cmdVISUAL of control cmdSair was not a loaded control class.
